Get parameter estimates and model estimates — par_est • EIVmodels
…
#> module glm loaded
#> Compiling model graph
#>    Resolving undeclared variables
#>    Allocating nodes
#> Graph information:
#>    Observed stochastic nodes: 60
#>    Unobserved stochastic nodes: 33
#>    Total graph size: 380
#> 
#> Initializing model
#> 
#> No convergence issues detected
par_est(mod)
#> $pred_summary
#> # A tibble: 50 × 4
#>         x pred_y   lwr_95 upr_95
#>     <dbl>  <dbl>    <dbl>  <dbl>
#>  1 0.0536 0.0966 -0.0311   0.222
#>  2 0.0893 0.132   0.00708  0.254
#>  3 0.125  0.168   0.0475   0.286
#>  4 0.161  0.204   0.0865   0.318
#>  5 0.196  0.240   0.126    0.351
#>  6 0.232  0.276   0.166    0.383
#>  7 0.268  0.312   0.206    0.415
#>  8 0.304  0.348   0.245    0.448
#>  9 0.339  0.384   0.285    0.480
#> 10 0.375  0.420   0.323    0.511
#> # … with 40 more rows
…
