Bayesian Errors-in-Variables Change-Point Linear Regression • EIVmodels
…
I’ve add in a prediction step in the JAGS model to get model-based predictions for a grid of x values (\(x_{pred}\)).

Simulate data

One of the best ways to get a feel for a model and it’s limitations is to use simulations. We can use the EIVmodels package to simulate data, with measurement errors, that has a single change point. Below I’m simulating 50 data points where x ranges from 0 to 2 (by default), the change point occurs at a value of \(x = 1\), the slope = 1.1 before the change point (\(\beta_1\)) and 0.1 after the change point (\(\beta_2\)) . The measurement errors for \(y\) and \(x\) are set to 0.1 and 0.2 respectively.

cp_dat <- sim_cp(n_sim = 50,
                 alpha = 0,
                 beta = c(1.1,0.1),
                 cp = 1,
                 y_err = 0.1,
                 x_err = 0.2)
cp_dat

## # A tibble: 50 × 6
##        x x_err       y y_err  true_y true_x
##    <dbl> <dbl>   <dbl> <dbl>   <dbl>  <dbl>
##  1 1.08    0.2 -0.278    0.1 -0.155   0.859
##  2 0.783   0.2 -0.0837   0.1 -0.118   0.893
##  3 0.579   0.2 -0.445    0.1 -0.542   0.507
##  4 1.43    0.2 -0.102    0.1  0.0243  1.24 
##  5 1.71    0.2  0.142    0.1  0.0475  1.48 
##  6 1.67    0.2  0.196    0.1  0.0747  1.75 
##  7 1.98    0.2  0.107    0.1  0.0961  1.96 
##  8 0.803   0.2 -0.518    0.1 -0.398   0.638
##  9 1.13    0.2  0.0431   0.1  0.0422  1.42 
## 10 1.29    0.2 -0.0421   0.1  0.0168  1.17 
## # … with 40 more rows
…
In this summary, q5 and q95 provide the upper and lower bounds of the 90% uncertainty intervals. Note here whether or not the 90% uncertainty intervals contain the true parameter values.

If you would like to get a more detailed look at the posterior distributions for the parameters you can pull the posterior samples from the model object created above and we can use the tidybayes package to create some plots.

First, get the sample_draws which contains the posterior samples for the parameters and the model-based estimates for the expected value of y.

mod_eiv_cp$sample_draws

## # A tibble: 3,000 × 59
##    .chain .iteration .draw    alpha `beta[1]` `beta[2]`    cp deviance
##     <int>      <int> <int>    <dbl>     <dbl>     <dbl> <dbl>    <dbl>
##  1      1          1     1 -0.160       1.22      0.311 0.636    -88.5
##  2      1          2     2 -0.0755      0.982     0.247 0.837    -97.5
##  3      1          3     3 -0.0835      0.714     0.441 1.01     -64.8
##  4      1          4     4 -0.0678      1.17      0.250 0.772    -99.3
##  5      1          5     5  0.128       0.774     0.198 1.27     -86.9
##  6      1          6     6 -0.191       1.16      0.322 0.704    -76.3
##  7      1          7     7 -0.0546      0.738     0.270 0.995    -84.0
##  8      1          8     8 -0.00664     0.812     0.174 1.12    -111. 
##  9      1          9     9 -0.106       1.01      0.325 0.829    -83.1
## 10      1         10    10  0.132       0.917    -0.158 1.17    -101. 
## # … with 2,990 more rows, and 51 more variables: `mu_pred[1]` <dbl>,
## #   `mu_pred[2]` <dbl>, `mu_pred[3]` <dbl>, `mu_pred[4]` <dbl>,
## #   `mu_pred[5]` <dbl>, `mu_pred[6]` <dbl>, `mu_pred[7]` <dbl>,
## #   `mu_pred[8]` <dbl>, `mu_pred[9]` <dbl>, `mu_pred[10]` <dbl>,
## #   `mu_pred[11]` <dbl>, `mu_pred[12]` <dbl>, `mu_pred[13]` <dbl>,
## #   `mu_pred[14]` <dbl>, `mu_pred[15]` <dbl>, `mu_pred[16]` <dbl>,
## #   `mu_pred[17]` <dbl>, `mu_pred[18]` <dbl>, `mu_pred[19]` <dbl>, …
…
