Introduction to EIVmodels • EIVmodels
…
To access the data that created this plot, use:

mod_reg_res <- par_est(mod = mod_eiv_slr)
mod_reg_res$pred_summary

## # A tibble: 50 × 4
##          x pred_y   lwr_95 upr_95
##      <dbl>  <dbl>    <dbl>  <dbl>
##  1 0.00636 0.0709 -0.0754   0.203
##  2 0.0460  0.109  -0.0334   0.239
##  3 0.0857  0.147   0.00835  0.274
##  4 0.125   0.185   0.0489   0.307
##  5 0.165   0.223   0.0908   0.340
##  6 0.205   0.261   0.134    0.373
##  7 0.244   0.299   0.176    0.407
##  8 0.284   0.337   0.218    0.443
##  9 0.324   0.374   0.259    0.477
## 10 0.363   0.413   0.301    0.513
## # … with 40 more rows
…
## # A tibble: 3 × 10
##   variable   mean median     sd    mad       q5   q95  rhat ess_bulk ess_tail
##   <chr>     <dbl>  <dbl>  <dbl>  <dbl>    <dbl> <dbl> <dbl>    <dbl>    <dbl>
## 1 alpha    0.0611 0.0649 0.0693 0.0638 -0.0587  0.172 1.00      961.     944.
## 2 beta     0.960  0.957  0.0551 0.0534  0.875   1.06  0.999     955.     944.
## 3 sigma    0.0418 0.0348 0.0318 0.0303  0.00325 0.103 0.999     913.     975.

Example - Using real data

The package contains a dataset called NJ_CC which is subset of a sea level reconstruction from New Jersey, USA (details of the full record can be found in this paper). Note the format of the dataset. This is the format you should use for any data you want to apply these models to.

EIVmodels::NJ_CC

## # A tibble: 50 × 4
##        x     y y_err x_err
##    <dbl> <dbl> <dbl> <dbl>
##  1  1509 -1.13  0.08  21  
##  2  1521 -1.12  0.07  20  
##  3  1532 -1.1   0.07  19  
##  4  1594 -1.05  0.06  15  
##  5  1604 -1     0.09  15  
##  6  1612 -0.97  0.09  13.5
##  7  1645 -0.91  0.13   7.5
##  8  1661 -0.91  0.09   6  
##  9  1687 -0.88  0.11  11  
## 10  1700 -0.85  0.11  11.5
## # … with 40 more rows
…
Let’s look at the output that creates these results plots

mod_gp_res <- par_est(mod = mod_eiv_gp)
mod_gp_res$pred_summary

## # A tibble: 50 × 7
##        x pred_y lwr_95 upr_95 rate_y rate_lwr_95 rate_upr_95
##    <dbl>  <dbl>  <dbl>  <dbl>  <dbl>       <dbl>       <dbl>
##  1 1509   -1.09  -1.24 -0.935  0.440     -0.762         1.82
##  2 1519.  -1.08  -1.22 -0.940  0.460     -0.716         1.82
##  3 1529.  -1.08  -1.21 -0.945  0.515     -0.590         1.79
##  4 1539.  -1.07  -1.20 -0.947  0.581     -0.497         1.79
##  5 1549.  -1.07  -1.18 -0.949  0.642     -0.424         1.81
##  6 1559.  -1.06  -1.17 -0.949  0.693     -0.323         1.84
##  7 1569.  -1.05  -1.16 -0.948  0.751     -0.228         1.83
##  8 1578.  -1.04  -1.14 -0.945  0.805     -0.130         1.82
##  9 1588.  -1.04  -1.13 -0.941  0.871     -0.0281        1.83
## 10 1598.  -1.03  -1.12 -0.936  0.940      0.0715        1.85
## # … with 40 more rows
…
Let’s look at the output that creates these results plots

mod_igp_res <- par_est(mod = mod_eiv_igp)
mod_igp_res$pred_summary

## # A tibble: 50 × 7
##        x pred_y lwr_95 upr_95 rate_y rate_lwr_95 rate_upr_95
##    <dbl>  <dbl>  <dbl>  <dbl>  <dbl>       <dbl>       <dbl>
##  1 1509   -1.12  -1.21 -1.03   0.963     -0.155         2.00
##  2 1519.  -1.11  -1.20 -1.03   0.991     -0.0645        1.96
##  3 1529.  -1.10  -1.18 -1.03   1.02       0.0283        1.94
##  4 1539.  -1.09  -1.16 -1.02   1.04       0.100         1.90
##  5 1549.  -1.08  -1.15 -1.02   1.06       0.178         1.87
##  6 1559.  -1.07  -1.13 -1.01   1.09       0.260         1.86
##  7 1569.  -1.06  -1.12 -1.00   1.11       0.338         1.85
##  8 1578.  -1.05  -1.10 -0.994  1.14       0.416         1.86
##  9 1588.  -1.04  -1.09 -0.984  1.18       0.486         1.84
## 10 1598.  -1.03  -1.08 -0.972  1.21       0.568         1.84
## # … with 40 more rows
…
